
state={
	id=129
	name="STATE_129"
	resources={
		steel=11.000
	}

	history={
		owner = EGY
		victory_points = {
			11964 3 
		}
		buildings = {
			infrastructure = 3
			industrial_complex = 0
			arms_factory = 0
			air_base = 0

		}
		add_core_of = EGY
	}

	provinces={
		1112 1155 4073 4161 7091 9947 10002 10005 10099 11922 11964 11979 12004 12049 12073 
	}
	manpower=778800
	buildings_max_level_factor=1.000
	state_category=rural
}
