
state={
	id=144
	name="STATE_144"
	resources={
		aluminium=2.000
		steel=2.000
	}

	history={
		owner = ENG
		victory_points = {
			4872 6 
		}
		buildings = {
			infrastructure = 3
			industrial_complex = 0
			arms_factory = 0
			air_base = 5

		}
		add_core_of = CAN
		add_core_of = X53
	}

	provinces={
		1848 1873 3721 4426 4790 4872 5239 7185 10605 12145 
	}
	manpower=32000
	buildings_max_level_factor=1.000
	state_category=rural
}
