
state={
	id=160
	name="STATE_160"
	resources={
		steel=68.000
	}

	history={
		owner = ENG
		victory_points = {
			9297 4 
		}
		buildings = {
			infrastructure = 3
			industrial_complex = 0
			arms_factory = 1
			dockyard = 1
			3353 = {
				naval_base = 2
			}
			air_base = 0

		}
		add_core_of = ENG
	}

	provinces={
		364 3241 3301 3353 6237 6270 6301 7239 9250 9268 9297 9322 11279 11345 
	}
	manpower=2620000
	buildings_max_level_factor=1.000
	state_category=large_town
}
