
state={
	id=225
	name="STATE_225"
	resources={
		aluminium=18.000
		steel=40.000
	}

	history={
		owner = FRA
		victory_points = {
			9737 3 
		}
		buildings = {
			infrastructure = 3
			industrial_complex = 1
			arms_factory = 0
			air_base = 0

		}
		add_core_of = FRA
	}

	provinces={
		743 929 3740 6621 6759 6762 6777 9710 9717 9737 9882 9884 11565 11697 11699 11720 12169 
	}
	manpower=1846840
	buildings_max_level_factor=1.000
	state_category=rural
}
