
state={
	id=359
	name="STATE_359"
	resources={
		aluminium=5.000
	}

	history={
		owner = X65
		victory_points = {
			9752 8 
		}
		buildings = {
			infrastructure = 3
			industrial_complex = 1
			arms_factory = 0
			air_base = 5

		}
		add_core_of = ITA
		add_core_of = X65
	}

	provinces={
		3773 6790 9752 
	}
	manpower=472000
	buildings_max_level_factor=1.000
	state_category=rural
}
