
state={
	id=366
	name="STATE_366"
	resources={
		aluminium=6.000
		oil=13.000
		steel=6.000
	}

	history={
		owner = PER
		victory_points = {
			8117 3 
		}
		buildings = {
			infrastructure = 3
			industrial_complex = 0
			arms_factory = 0
			air_base = 0

		}
		add_core_of = PER
	}

	provinces={
		1986 2039 4928 4966 8031 8117 10881 10913 11249 12780 12809 12863 
	}
	manpower=513304
	buildings_max_level_factor=1.000
	state_category=pastoral
}
