
state={
	id=442
	name="STATE_442"
	resources={
		chromium=0.000
		steel=2.000
	}

	history={
		owner = SOV
		victory_points = {
			12611 3 
		}
		buildings = {
			infrastructure = 3
			industrial_complex = 0
			arms_factory = 0
			air_base = 0

		}
		add_core_of = SOV
	}

	provinces={
		1852 6085 7726 7765 9224 10557 12531 12538 12608 12611 12668 13059 
	}
	manpower=35000
	buildings_max_level_factor=1.000
	state_category=rural
}
