
state={
	id=568
	name="STATE_568"
	resources={
		steel=112.000
	}

	history={
		owner = USA
		victory_points = {
			12501 3 
		}
		buildings = {
			infrastructure = 3
			industrial_complex = 0
			arms_factory = 0
			air_base = 0

		}
		add_core_of = USA
	}

	provinces={
		913 1758 1987 7615 7791 7797 8014 8083 10281 10615 10657 10824 10909 12501 12670 
	}
	manpower=769600
	buildings_max_level_factor=1.000
	state_category=pastoral
}
